File,wmc,Absolute difference wmc,Relative difference wmc,dit,Absolute difference dit,Relative difference dit,noc,Absolute difference noc,Relative difference noc,cbo,Absolute difference cbo,Relative difference cbo,rfc,Absolute difference rfc,Relative difference rfc,lcom,Absolute difference lcom,Relative difference lcom,ca,Absolute difference ca,Relative difference ca,ce,Absolute difference ce,Relative difference ce,npm,Absolute difference npm,Relative difference npm,lcom3,Absolute difference lcom3,Relative difference lcom3,LOC,Absolute difference LOC,Relative difference LOC,dam,Absolute difference dam,Relative difference dam,moa,Absolute difference moa,Relative difference moa,mfa,Absolute difference mfa,Relative difference mfa,cam,Absolute difference cam,Relative difference cam,ic,Absolute difference ic,Relative difference ic,cbm,Absolute difference cbm,Relative difference cbm,amc,Absolute difference amc,Relative difference amc,max_cc,Absolute difference max_cc,Relative difference max_cc,avg_cc,Absolute difference avg_cc,Relative difference avg_cc,bug_cnt,Absolute difference bug_cnt,Relative difference bug_cnt,DD,bug_cnt_avg,LOC_avg,bug_cnt_bin,ClassFound,Version
org.apache.forrest.sourcetype.SourceTypeAction,3,0,0,2,0,0,0,0,0,24,0,0,43,0,0,0,0,0,0,0,0,24,0,0,3,0,0,0.75,0,0,247,0,0,1,0,0,0,0,0,0.714285714,0,0,0.428571429,0,0,0,0,0,0,0,0,80.66666667,0,0,1,0,0,0.6667,0,0,0,0,0,0.0,0.0,0.050101419878296145,0,0,none
org.apache.forrest.locationmap.lm.SelectNode,3,0,0,3,0,0,0,0,0,13,0,0,30,0,0,0,0,0,2,0,0,13,0,0,3,0,0,0.625,0,0,216,0,0,1,0,0,2,0,0,0.818181818,0,0,0.444444444,0,0,2,0,0,2,0,0,69.66666667,0,0,1,0,0,0.6667,0,0,0,0,0,0.0,0.0,0.04381338742393509,0,0,none
org.apache.forrest.sourcetype.SourceInfo,14,0,0,1,0,0,0,0,0,7,0,0,19,0,0,69,0,0,7,0,0,0,0,0,14,0,0,0.897435897,0,0,81,0,0,1,0,0,0,0,0,0,0,0,0.785714286,0,0,0,0,0,0,0,0,4.357142857,0,0,1,0,0,0.9286,0,0,0,0,0,0.0,0.0,0.01643002028397566,0,0,none
org.apache.forrest.locationmap.lm.LocatorNode,5,0,0,3,0,0,0,0,0,14,0,0,34,0,0,2,0,0,4,0,0,13,0,0,3,0,0,0.666666667,0,0,235,0,0,1,0,0,2,0,0,0.692307692,0,0,0.333333333,0,0,1,0,0,1,0,0,45.4,0,0,1,0,0,0.8,0,0,0,0,0,0.0,0.0,0.04766734279918864,0,0,none
org.apache.forrest.xni.XNIConfigurableFileGenerator,8,0,0,5,0,0,0,0,0,19,0,0,43,0,0,8,0,0,1,0,0,19,0,0,8,0,0,0.821428571,0,0,305,0,0,0.25,0,0,0,0,0,0.65,0,0,0.3,0,0,1,0,0,1,0,0,36.625,0,0,2,0,0,1.125,0,0,0,0,0,0.0,0.0,0.061866125760649086,0,0,none
org.apache.forrest.sourceexists.SourceExistsSelector,3,0,0,2,0,0,0,0,0,10,0,0,14,0,0,0,0,0,0,0,0,10,0,0,3,0,0,0,0,0,97,0,0,0,0,0,0,0,0,0.714285714,0,0,0.466666667,0,0,0,0,0,0,0,0,31,0,0,2,0,0,1,0,0,0,0,0,0.0,0.0,0.019675456389452332,0,0,none
org.apache.forrest.sourcetype.SourceTypeRule,1,0,0,1,0,0,0,0,0,7,0,0,1,0,0,0,0,0,5,0,0,2,0,0,1,0,0,2,0,0,1,0,0,0,0,0,0,0,0,0,0,0,1,0,0,0,0,0,0,0,0,0,0,0,1,0,0,1,0,0,0,0,0,0.0,0.0,0.00020283975659229209,0,0,none
org.apache.forrest.log.ForrestLogTargetFactory,2,0.0,0.00,5,0.0,0.00,0,0.0,0.00,5,1.0,0.20,12,0.0,0.00,1,0.0,0.00,0,0.0,0.00,5,1.0,0.20,2,0.0,0.00,2,0.0,0.00,43,0.0,0.00,0,0.0,0.00,0,0.0,0.00,0.933333333,0.0,0.00,0.75,0.0,0.00,0,1.0,0.00,0,1.0,0.00,20.5,0.0,0.00,1,0.0,0.00,0.5,0.0,0.00,0,1.0,0.00,0.0,0.0,0.00872210953346856,0,1,inputForest\forrest_06.csv
org.apache.forrest.locationmap.lm.AbstractNode,5,0,0,2,0,0,4,0,0,13,0,0,28,0,0,6,0,0,4,0,0,9,0,0,3,0,0,0.625,0,0,138,0,0,1,0,0,0,0,0,0.555555556,0,0,0.48,0,0,0,0,0,0,0,0,26.2,0,0,1,0,0,0.8,0,0,0,0,0,0.0,0.0,0.027991886409736308,0,0,none
org.apache.forrest.conf.AntPropertiesModule,5,0.0,0.00,4,0.0,0.00,0,0.0,0.00,12,0.0,0.00,20,0.0,0.00,6,0.0,0.00,0,0.0,0.00,12,0.0,0.00,3,0.0,0.00,0.5,0.0,0.00,88,0.0,0.00,1,0.0,0.00,0,0.0,0.00,0.789473684,0.0,0.00,0.4,0.0,0.00,1,0.0,0.00,1,0.0,0.00,16.2,0.0,0.00,1,0.0,0.00,0.8,0.0,0.00,0,0.0,0.00,0.0,0.0,0.017849898580121704,0,1,inputForest\forrest_06.csv
org.apache.forrest.sourcetype.SourceType,4,0,0,1,0,0,0,0,0,9,0,0,24,0,0,0,0,0,1,0,0,8,0,0,4,0,0,0.5,0,0,144,0,0,1,0,0,0,0,0,0,0,0,0.5,0,0,0,0,0,0,0,0,34.5,0,0,4,0,0,1.5,0,0,1,0,0,0.006944444444444444,0.06666666666666667,0.02920892494929006,1,0,none
org.apache.forrest.locationmap.RegexpLocationMapMatcher,2,0,0,4,0,0,0,0,0,5,0,0,13,0,0,1,0,0,0,0,0,5,0,0,1,0,0,2,0,0,62,0,0,0,0,0,0,0,0,0.9,0,0,0.666666667,0,0,1,0,0,1,0,0,30,0,0,4,0,0,2,0,0,0,0,0,0.0,0.0,0.01257606490872211,0,0,none
org.apache.forrest.conf.ForrestConfModule,10,0.0,0.00,3,0.0,0.00,0,0.0,0.00,16,1.0,0.06,42,0.0,0.00,37,0.0,0.00,0,0.0,0.00,16,1.0,0.06,5,0.0,0.00,0.925925926,0.0,0.00,340,0.0,0.00,1,0.0,0.00,1,0.0,0.00,0.5,0.0,0.00,0.366666667,0.0,0.00,1,0.0,0.00,1,0.0,0.00,32.4,0.0,0.00,2,1.0,0.50,1.1,0.1,0.09,8,8.0,1.00,0.023529411764705882,0.5333333333333333,0.06896551724137931,1,1,inputForest\forrest_06.csv
org.apache.forrest.locationmap.lm.LocationMap,7,0,0,2,0,0,0,0,0,15,0,0,48,0,0,5,0,0,2,0,0,14,0,0,4,0,0,0.9375,0,0,364,0,0,0.5,0,0,2,0,0,0.454545455,0,0,0.371428571,0,0,0,0,0,0,0,0,49.85714286,0,0,2,0,0,1,0,0,2,0,0,0.005494505494505495,0.13333333333333333,0.07383367139959432,1,0,none
org.apache.forrest.locationmap.lm.MatchNode,3,0,0,3,0,0,0,0,0,13,0,0,33,0,0,0,0,0,2,0,0,13,0,0,3,0,0,0.6,0,0,234,0,0,1,0,0,2,0,0,0.818181818,0,0,0.444444444,0,0,2,0,0,2,0,0,75.33333333,0,0,1,0,0,0.6667,0,0,0,0,0,0.0,0.0,0.04746450304259635,0,0,none
org.apache.forrest.locationmap.WildcardLocationMapHintMatcher,2,0,0,4,0,0,0,0,0,2,0,0,4,0,0,1,0,0,0,0,0,2,0,0,1,0,0,2,0,0,10,0,0,0,0,0,0,0,0,0.9,0,0,0.666666667,0,0,1,0,0,1,0,0,4,0,0,1,0,0,0.5,0,0,0,0,0,0.0,0.0,0.002028397565922921,0,0,none
org.apache.forrest.locationmap.WildcardLocationMapMatcher,2,0,0,4,0,0,0,0,0,5,0,0,13,0,0,1,0,0,0,0,0,5,0,0,1,0,0,2,0,0,62,0,0,0,0,0,0,0,0,0.9,0,0,0.666666667,0,0,1,0,0,1,0,0,30,0,0,4,0,0,2,0,0,0,0,0,0.0,0.0,0.01257606490872211,0,0,none
org.apache.forrest.conf.SkinconfTransformer,3,0.0,0.00,5,0.0,0.00,0,0.0,0.00,4,1.0,0.25,24,0.0,0.00,3,0.0,0.00,0,0.0,0.00,4,1.0,0.25,3,0.0,0.00,2,0.0,0.00,276,0.0,0.00,0,0.0,0.00,0,0.0,0.00,0.931034483,0.00229885,0.00,0.5,0.0,0.00,1,0.0,0.00,1,0.0,0.00,91,0.0,0.00,1,0.0,0.00,0.6667,0.0,0.00,0,0.0,0.00,0.0,0.0,0.055983772819472616,0,1,inputForest\forrest_06.csv
org.apache.forrest.locationmap.lm.LocationNode,3,0,0,3,0,0,0,0,0,11,0,0,12,0,0,1,0,0,2,0,0,9,0,0,3,0,0,0.75,0,0,45,0,0,1,0,0,1,0,0,0.818181818,0,0,0.444444444,0,0,0,0,0,0,0,0,13.33333333,0,0,1,0,0,0.6667,0,0,0,0,0,0.0,0.0,0.009127789046653144,0,0,none
org.apache.forrest.sourcetype.DocDeclRule,3,0,0,1,0,0,0,0,0,5,0,0,7,0,0,1,0,0,1,0,0,4,0,0,3,0,0,0.5,0,0,23,0,0,1,0,0,0,0,0,0,0,0,0.555555556,0,0,0,0,0,0,0,0,6.333333333,0,0,2,0,0,1,0,0,0,0,0,0.0,0.0,0.004665314401622718,0,0,none
org.apache.forrest.sourcetype.ProcessingInstructionRule,3,0,0,1,0,0,0,0,0,5,0,0,9,0,0,1,0,0,1,0,0,4,0,0,3,0,0,0.5,0,0,52,0,0,1,0,0,0,0,0,0,0,0,0.555555556,0,0,0,0,0,0,0,0,15.66666667,0,0,6,0,0,2.3333,0,0,0,0,0,0.0,0.0,0.010547667342799188,0,0,none
org.apache.forrest.util.XPathTransformer,17,0,0,6,0,0,0,0,0,13,0,0,62,0,0,88,0,0,0,0,0,13,0,0,9,0,0,0.671875,0,0,532,0,0,1,0,0,0,0,0,0.76119403,0,0,0.25,0,0,1,0,0,2,0,0,30.05882353,0,0,17,0,0,2.8235,0,0,0,0,0,0.0,0.0,0.10791075050709939,0,0,none
org.apache.forrest.locationmap.LocationMapModule,10,0,0,2,0,0,0,0,0,17,0,0,38,0,0,35,0,0,0,0,0,17,0,0,7,0,0,0.722222222,0,0,291,0,0,1,0,0,1,0,0,0.384615385,0,0,0.37037037,0,0,0,0,0,0,0,0,27.5,0,0,1,0,0,0.8,0,0,3,0,0,0.010309278350515464,0.2,0.059026369168357,1,0,none
org.apache.forrest.conf.AntProperties,7,0.0,0.00,4,0.0,0.00,0,0.0,0.00,5,0.0,0.00,45,1.0,0.02,21,0.0,0.00,3,1.0,0.33,2,0.0,0.00,7,0.0,0.00,2,0.0,0.00,215,4.0,0.02,0,0.0,0.00,0,0.0,0.00,0.9,0.0,0.00,0.30952381,0.0,0.00,2,0.0,0.00,5,1.0,0.20,29.71428571,0.57142858,0.02,5,0.0,0.00,1.7143,0.0,0.00,0,0.0,0.00,0.0,0.0,0.0436105476673428,0,1,inputForest\forrest_06.csv
org.apache.forrest.conf.ForrestConfUtils,7,0.0,0.00,1,0.0,0.00,0,0.0,0.00,4,0.0,0.00,16,0.0,0.00,21,0.0,0.00,2,0.0,0.00,2,0.0,0.00,5,0.0,0.00,1.166666667,0.0,0.00,104,3.0,0.03,0,0.75,0.00,0,0.0,0.00,0,0.0,0.00,0.238095238,0.0,0.00,0,0.0,0.00,0,0.0,0.00,13.71428571,0.0,0.00,5,0.0,0.00,1.4286,0.0,0.00,1,1.0,1.00,0.009615384615384616,0.06666666666666667,0.021095334685598377,1,1,inputForest\forrest_06.csv
org.apache.forrest.util.IdGeneratorTransformer,13,0,0,6,0,0,0,0,0,16,0,0,49,0,0,38,0,0,0,0,0,16,0,0,10,0,0,0.604166667,0,0,410,0,0,1,0,0,0,0,0,0.80952381,0,0,0.213675214,0,0,1,0,0,2,0,0,30.23076923,0,0,2,0,0,1,0,0,0,0,0,0.0,0.0,0.08316430020283976,0,0,none
org.apache.forrest.sourcetype.DocumentElementRule,3,0,0,1,0,0,0,0,0,5,0,0,13,0,0,1,0,0,1,0,0,4,0,0,3,0,0,0.5,0,0,84,0,0,1,0,0,0,0,0,0,0,0,0.555555556,0,0,0,0,0,0,0,0,26.33333333,0,0,9,0,0,3.3333,0,0,0,0,0,0.0,0.0,0.017038539553752535,0,0,none
org.apache.forrest.sourcetype.XmlSchemaRule,3,0,0,1,0,0,0,0,0,4,0,0,13,0,0,1,0,0,0,0,0,4,0,0,3,0,0,0.5,0,0,90,0,0,1,0,0,0,0,0,0,0,0,0.555555556,0,0,0,0,0,0,0,0,28.33333333,0,0,11,0,0,4,0,0,0,0,0,0.0,0.0,0.018255578093306288,0,0,none
org.apache.forrest.locationmap.AbstractWrappingModule,7,0,0,2,0,0,0,0,0,11,0,0,26,0,0,0,0,0,0,0,0,11,0,0,7,0,0,0.583333333,0,0,141,0,0,0,0,0,0,0,0,0.454545455,0,0,0.485714286,0,0,0,0,0,0,0,0,18.85714286,0,0,2,0,0,1,0,0,0,0,0,0.0,0.0,0.028600405679513184,0,0,none
